
[{
    "price": "1899",
    "airline": "FD (Thai AirAsia)",
    "takeoff": "BKK 06:00",
    "landing": "CEI 7:55",
    "stop":"0(12)",
    "departing":"Suvarnabhumi international Airport (BKK)",
    "destination" : "Mae Fah Luang Chiang Rai International Airport (CEI)",
    "type" : "one-way",
    "outboundDate" : "Saturday, October 10th, 2015",
    "outboundName" : "OUTBOUND"
},{
    "price": "2899",
    "airline": "SL (Thai Lion Air)",
    "takeoff": "CNX 06:00",
    "landing": "BKK 18:00",
    "stop":"0(09)",
    "departing":"Chiang Mai International Airport (CNX)",
    "destination" : "Suvarnabhumi international Airport (BKK)",
    "type" : "one-way",
    "outboundDate" : "Saturday, October 10th, 2015",
    "outboundName" : "OUTBOUND"
},{
    "price": "1729",
    "airline": "O8 (Siam Air)",
    "takeoff": "HDY 23:00",
    "landing": "BKK 07:00",
    "stop":"0(10)",
    "departing":"Hat Yai International Airport (HDY)",
    "destination" : "Suvarnabhumi international Airport (BKK)",
    "type" : "one-way",
    "outboundDate" : "Saturday, October 10th, 2015",
    "outboundName" : "OUTBOUND"
},{
    "price": "899",
    "airline": "PG (Bangkok Airways)",
    "takeoff": "BKK 01:00",
    "landing": "HKT 10:00",
    "stop":"0(12)",
    "departing":"Suvarnabhumi international Airport (BKK)",
    "destination" : "Phuket International Airport (HKT)",
    "type" : "one-way",
    "outboundDate" : "Saturday, October 10th, 2015",
    "outboundName" : "OUTBOUND"
},{
    "price": "2499",
    "airline": "DD (Nok Air)",
    "takeoff": "DMK 02:00",
    "landing": "CEI 11:00",
    "stop":"0(12)",
    "departing":"Don Mueang International Airport (DMK)",
    "destination" : "Mae Fah Luang Chiang Rai International Airport (CEI)",
    "type" : "one-way",
    "outboundDate" : "Saturday, October 10th, 2015",
    "outboundName" : "OUTBOUND"
},{
    "price": "899",
    "airline": "DD (Nok Air)",
    "takeoff": "DMK 02:00",
    "landing": "CNX 11:00",
    "stop":"0(12)",
    "departing":"Don Mueang International Airport (DMK)",
    "destination" : "Chiang Mai International Airport (CNX)",
    "type" : "one-way",
    "outboundDate" : "Saturday, October 10th, 2015",
    "outboundName" : "OUTBOUND"
},{
    "price": "659",
    "airline": "PG (Bangkok Airways)",
    "takeoff": "HKT 02:00",
    "landing": "CNX 11:00",
    "stop":"0(12)",
    "departing":"Phuket International Airport (HKT)",
    "destination" : "Chiang Mai International Airport (CNX)",
    "type" : "one-way",
    "outboundDate" : "Saturday, October 10th, 2015",
    "outboundName" : "OUTBOUND"
},{
    "price": "1099",
    "airline": "FD (Thai AirAsia)",
    "takeoff": "BKK 06:00",
    "landing": "CNX 7:30",
    "stop":"0(12)",
    "departing": "Suvarnabhumi international Airport (BKK)",
    "destination" : "Chiang Mai International Airport (CNX)",
    "type" : "one-way",
    "outboundDate" : "Saturday, October 10th, 2015",
    "outboundName" : "OUTBOUND"
},{
    "price": "1299",
    "airline": "DD (Nok Air)",
    "takeoff": "BKK 10:00",
    "landing": "CNX 12:00",
    "stop":"0(12)",
    "departing": "Suvarnabhumi international Airport (BKK)",
    "destination" : "Chiang Mai International Airport (CNX)",
    "type" : "one-way",
    "outboundDate" : "Saturday, October 10th, 2015",
    "outboundName" : "OUTBOUND"
},{
    "price": "1199",
    "airline": "DD (Nok Air)",
    "takeoff": "BKK 05:30",
    "landing": "CNX 6:45",
    "stop":"0(12)",
    "departing": "Suvarnabhumi international Airport (BKK)",
    "destination" : "Chiang Mai International Airport (CNX)",
    "type" : "one-way",
    "outboundDate" : "Saturday, October 10th, 2015",
    "outboundName" : "OUTBOUND"
},{
    "price": "1599",
    "airline": "DD (Nok Air)",
    "takeoff": "BKK 12:30",
    "landing": "CNX 14:25",
    "stop":"0(12)",
    "departing": "Suvarnabhumi international Airport (BKK)",
    "destination" : "Chiang Mai International Airport (CNX)",
    "type" : "one-way",
    "outboundDate" : "Saturday, October 10th, 2015",
    "outboundName" : "OUTBOUND"
},{
    "price": "1299",
    "airline": "PG (Bangkok Airways)",
    "takeoff": "BKK 10:15",
    "landing": "CEI 12:45",
    "stop":"0(12)",
    "departing": "Suvarnabhumi international Airport (BKK)",
    "destination" : "Mae Fah Luang Chiang Rai International Airport (CEI)",
    "type" : "one-way",
    "outboundDate" : "Saturday, October 10th, 2015",
    "outboundName" : "OUTBOUND"
},{
    "price": "759",
    "airline": "O8 (Siam Air)",
    "takeoff": "BKK 12:50",
    "landing": "CEI 14:30",
    "stop":"0(12)",
    "departing": "Suvarnabhumi international Airport (BKK)",
    "destination" : "Mae Fah Luang Chiang Rai International Airport (CEI)",
    "type" : "one-way",
    "outboundDate" : "Saturday, October 10th, 2015",
    "outboundName" : "OUTBOUND"
},{
    "price": "979",
    "airline": "FD (Thai AirAsia)",
    "takeoff": "BKK 18:30",
    "landing": "CEI 20:00",
    "stop":"0(12)",
    "departing": "Suvarnabhumi international Airport (BKK)",
    "destination" : "Mae Fah Luang Chiang Rai International Airport (CEI)",
    "type" : "one-way",
    "outboundDate" : "Saturday, October 10th, 2015",
    "outboundName" : "OUTBOUND"
},{
    "price": "2159",
    "airline": "FD (Thai AirAsia)",
    "takeoff": "BKK 19:30",
    "landing": "CEI 21:20",
    "stop":"0(12)",
    "departing": "Suvarnabhumi international Airport (BKK)",
    "destination" : "Mae Fah Luang Chiang Rai International Airport (CEI)",
    "type" : "one-way",
    "outboundDate" : "Saturday, October 10th, 2015",
    "outboundName" : "OUTBOUND"
},{
    "price": "1099",
    "airline": "SL (Thai Lion Air)",
    "takeoff": "BKK 22:00",
    "landing": "CEI 00:30",
    "stop":"0(12)",
    "departing": "Suvarnabhumi international Airport (BKK)",
    "destination" : "Mae Fah Luang Chiang Rai International Airport (CEI)",
    "type" : "one-way",
    "outboundDate" : "Saturday, October 10th, 2015",
    "outboundName" : "OUTBOUND"
},{
    "price": "879",
    "airline": "PG (Bangkok Airways)",
    "takeoff": "BKK 04:50",
    "landing": "CEI 6:30",
    "stop":"0(12)",
    "departing": "Suvarnabhumi international Airport (BKK)",
    "destination" : "Mae Fah Luang Chiang Rai International Airport (CEI)",
    "type" : "one-way",
    "outboundDate" : "Saturday, October 10th, 2015",
    "outboundName" : "OUTBOUND"
},{
    "price": "759",
    "airline": "DD (Nok Air)",
    "takeoff": "BKK 05:45",
    "landing": "CNX 07:30",
    "stop":"0(12)",
    "departing": "Suvarnabhumi international Airport (BKK)",
    "destination" : "Chiang Mai International Airport (CNX)",
    "type" : "one-way",
    "outboundDate" : "Saturday, October 10th, 2015",
    "outboundName" : "OUTBOUND"
},{
    "price": "10599",
    "type" : "round-trip",
    "outboundName" : "OUTBOUND",
    "outboundDate" : "Saturday, October 10th, 2015",
    "airline" : "DD (Nok Air)",
    "takeoff": "BKK 05:45",
    "landing": "CNX 07:30",
    "stop":"0(12)",
    "departing": "Suvarnabhumi international Airport (BKK)",
    "destination" : "Chiang Mai International Airport (CNX)",
    "inboundName" : "INBOUND",
    "inboundDate" : "Thursday, October 21th, 2015",
    "in_airline" : "PG (Bangkok Airways)",
    "in_takeoff" : "CNX 05:45",
    "in_landing" : "BKK 07:30",
    "in_stop" : "0(0)",
    "in_departing" : "Chiang Mai International Airport (CNX)",
    "in_destination" : "Suvarnabhumi international Airport (BKK)" 
},{
    "price": "9899",
    "type" : "round-trip",
    "outboundName" : "OUTBOUND",
    "outboundDate" : "Saturday, October 10th, 2015",
    "airline" : "DD (Nok Air)",
    "takeoff": "BKK 15:45",
    "landing": "CNX 18:30",
    "stop":"0(12)",
    "departing": "Suvarnabhumi international Airport (BKK)",
    "destination" : "Chiang Mai International Airport (CNX)",
    "inboundName" : "INBOUND",
    "inboundDate" : "Thursday, October 21th, 2015",
    "in_airline" : "PG (Bangkok Airways)",
    "in_takeoff" : "CNX 10:45",
    "in_landing" : "BKK 12:30",
    "in_stop" : "0(0)",
    "in_departing" : "Chiang Mai International Airport (CNX)",
    "in_destination" : "Suvarnabhumi international Airport (BKK)"
}]
